<svg data-name="Layer 1" version="1.1" viewBox="0 0 71 71" xmlns="http://www.w3.org/2000/svg">
 <defs>
  <style>.cls-1{fill:none;}</style>
 </defs>
 <title>Icons_Jan2016</title>
 <path d="m35.5 0a0.5 0.5 0 0 0-0.5 0.5 0.5 0.5 0 0 0 1 0 0.5 0.5 0 0 0-0.5-0.5zm-21.93 0.5a1.972 1.972 0 0 0-1.9707 1.9668v3.2266h-3.2227a1.972 1.972 0 0 0-1.9668 1.9648v0.67578a1.972 1.972 0 0 0 1.9668 1.9668h3.2227v3.2266a1.972 1.972 0 0 0 1.9668 1.9648h0.67383a1.972 1.972 0 0 0 1.9668-1.9648v-3.2266h3.2266a1.972 1.972 0 0 0 1.9668-1.9668v-0.67578a1.972 1.972 0 0 0-1.9668-1.9648h-3.2227v-3.2266a1.972 1.972 0 0 0-1.9668-1.9668zm34.383 5.1934c-1.0892 0-1.9648 0.87568-1.9648 1.9648v0.67578c0 1.0892 0.87568 1.9668 1.9648 1.9668h11.061c1.0892 0 1.9668-0.87763 1.9668-1.9668v-0.67578c0-1.0892-0.87763-1.9648-1.9668-1.9648zm-12.453 1.3066a0.493 0.493 0 0 0-0.5 0.49023 0.5 0.5 0 0 0 1 0 0.493 0.493 0 0 0-0.5-0.49023zm0 7a0.5 0.5 0 0 0-0.5 0.5 0.5 0.5 0 0 0 1 0 0.5 0.5 0 0 0-0.5-0.5zm-35.014 6.9824a0.5 0.5 0 0 0-0.48633 0.5 0.5 0.5 0 0 0 0.5 0.5 0.5 0.5 0 0 0 0.5-0.5 0.5 0.5 0 0 0-0.51367-0.5zm7.0137 0a0.5 0.5 0 0 0-0.5 0.5 0.5 0.5 0 0 0 0.5 0.5 0.508 0.508 0 0 0 0.5-0.5 0.5 0.5 0 0 0-0.5-0.5zm7 0a0.5 0.5 0 0 0-0.5 0.5 0.5 0.5 0 0 0 0.5 0.5 0.508 0.508 0 0 0 0.5-0.5 0.5 0.5 0 0 0-0.5-0.5zm7 0a0.5 0.5 0 0 0-0.5 0.5 0.5 0.5 0 0 0 0.5 0.5 0.508 0.508 0 0 0 0.5-0.5 0.5 0.5 0 0 0-0.5-0.5zm7 0a0.5 0.5 0 0 0-0.5 0.5 0.5 0.5 0 0 0 0.5 0.5 0.508 0.508 0 0 0 0.5-0.5 0.5 0.5 0 0 0-0.5-0.5zm7 0a0.5 0.5 0 0 0-0.5 0.5v0.02152a0.5 0.5 0 0 0 1 0v-0.02152a0.5 0.5 0 0 0-0.5-0.5zm7 0a0.5 0.5 0 0 0-0.5 0.5 0.5 0.5 0 0 0 0.5 0.5 0.508 0.508 0 0 0 0.5-0.5 0.5 0.5 0 0 0-0.5-0.5zm7 0a0.5 0.5 0 0 0-0.5 0.5 0.5 0.5 0 0 0 0.5 0.5 0.508 0.508 0 0 0 0.5-0.5 0.5 0.5 0 0 0-0.5-0.5zm7 0a0.5 0.5 0 0 0-0.5 0.5 0.5 0.5 0 0 0 0.5 0.5 0.508 0.508 0 0 0 0.5-0.5 0.5 0.5 0 0 0-0.5-0.5zm7 0a0.5 0.5 0 0 0-0.5 0.5 0.5 0.5 0 0 0 0.5 0.5 0.508 0.508 0 0 0 0.5-0.5 0.5 0.5 0 0 0-0.5-0.5zm7 0a0.5 0.5 0 0 0-0.5 0.5 0.5 0.5 0 0 0 0.5 0.5 0.508 0.508 0 0 0 0.5-0.5 0.5 0.5 0 0 0-0.5-0.5zm-35 7.0176a0.5 0.5 0 0 0-0.5 0.5 0.5 0.5 0 0 0 1 0 0.5 0.5 0 0 0-0.5-0.5zm-33.033 2.5078a2.469 2.469 0 0 0-2.4668 2.4668v0.67578a2.469 2.469 0 0 0 2.4668 2.4648h0.67383a2.469 2.469 0 0 0 2.4668-2.4648v-0.67578a2.469 2.469 0 0 0-2.4668-2.4668zm43.184 0a2.469 2.469 0 0 0-2.4648 2.4668v0.67578a2.469 2.469 0 0 0 2.4648 2.4648h0.67578a2.469 2.469 0 0 0 2.4668-2.4648v-0.67578a2.469 2.469 0 0 0-2.4668-2.4668zm-36.789 0.83984a0.5 0.5 0 0 0-0.5 0.5 0.5 0.5 0 0 0 0.5 0.5h18.453a0.5 0.5 0 0 0 0-1zm43.186 0a0.5 0.5 0 0 0 0 1h18.453a0.5 0.5 0 0 0 0-1zm-49.58 0.16016h0.67383a1.467 1.467 0 0 1 1.4668 1.4668v0.67578a1.467 1.467 0 0 1-1.4668 1.4648h-0.67383a1.467 1.467 0 0 1-1.4668-1.4648v-0.67578a1.467 1.467 0 0 1 1.4668-1.4668zm43.184 0h0.67578a1.467 1.467 0 0 1 1.4668 1.4668v0.67578a1.467 1.467 0 0 1-1.4668 1.4648h-0.67578a1.467 1.467 0 0 1-1.4648-1.4648v-0.67578a1.467 1.467 0 0 1 1.4648-1.4668zm-36.789 2.7695a0.5 0.5 0 0 0 0 1h10.252a0.5 0.5 0 0 0 0-1zm43.186 0a0.5 0.5 0 0 0 0 1h10.254a0.5 0.5 0 0 0 0-1zm-16.547 0.72266a0.493 0.493 0 0 0-0.5 0.49023 0.5 0.5 0 0 0 1 0 0.493 0.493 0 0 0-0.5-0.49023zm-33.033 6.5254a2.469 2.469 0 0 0-2.4668 2.4668v0.67578a2.469 2.469 0 0 0 2.4668 2.4648h0.67383a2.469 2.469 0 0 0 2.4668-2.4668v-0.67578a2.469 2.469 0 0 0-2.4668-2.4648zm43.184 0a2.469 2.469 0 0 0-2.4648 2.4668v0.67578a2.469 2.469 0 0 0 2.4648 2.4648h0.67578a2.469 2.469 0 0 0 2.4668-2.4648v-0.67578a2.469 2.469 0 0 0-2.4668-2.4668zm-10.15 0.47461a0.5 0.5 0 0 0-0.5 0.5 0.5 0.5 0 0 0 1 0 0.5 0.5 0 0 0-0.5-0.5zm-26.639 0.36523a0.5 0.5 0 0 0 0 1h18.453a0.5 0.5 0 0 0 0-1zm43.186 0a0.5 0.5 0 0 0 0 1h18.453a0.5 0.5 0 0 0 0-1zm-49.58 0.16016h0.67383a1.467 1.467 0 0 1 1.4668 1.4668v0.67578a1.467 1.467 0 0 1-1.4668 1.4648h-0.67383a1.467 1.467 0 0 1-1.4668-1.4668v-0.67383a1.467 1.467 0 0 1 1.4668-1.4668zm43.184 0h0.67578a1.467 1.467 0 0 1 1.4668 1.4668v0.67578a1.467 1.467 0 0 1-1.4668 1.4648h-0.67578a1.467 1.467 0 0 1-1.4648-1.4648v-0.67578a1.467 1.467 0 0 1 1.4648-1.4668zm-36.789 2.7676a0.5 0.5 0 0 0 0 1h10.252a0.5 0.5 0 0 0 0-1zm43.186 0a0.5 0.5 0 0 0 0 1h10.254a0.5 0.5 0 0 0 0-1zm-16.547 3.707a0.5 0.5 0 0 0-0.5 0.5 0.5 0.5 0 0 0 1 0 0.5 0.5 0 0 0-0.5-0.5zm-33.033 3.543a2.469 2.469 0 0 0-2.4668 2.4648v0.67578a2.469 2.469 0 0 0 2.4668 2.4648h0.67383a2.469 2.469 0 0 0 2.4668-2.4648v-0.67578a2.469 2.469 0 0 0-2.4668-2.4648zm43.184 0a2.469 2.469 0 0 0-2.4648 2.4648v0.67578a2.469 2.469 0 0 0 2.4648 2.4648h0.67578a2.469 2.469 0 0 0 2.4668-2.4648v-0.67578a2.469 2.469 0 0 0-2.4668-2.4648zm-36.789 0.83789a0.5 0.5 0 0 0 0 1h18.453a0.5 0.5 0 0 0 0-1zm43.186 0a0.5 0.5 0 0 0 0 1h18.453a0.5 0.5 0 0 0 0-1zm-49.58 0.16211h0.67383a1.467 1.467 0 0 1 1.4668 1.4648v0.67578a1.467 1.467 0 0 1-1.4668 1.4648h-0.67383a1.467 1.467 0 0 1-1.4668-1.4648v-0.67578a1.467 1.467 0 0 1 1.4668-1.4648zm43.184 0h0.67578a1.467 1.467 0 0 1 1.4668 1.4648v0.67578a1.467 1.467 0 0 1-1.4668 1.4648h-0.67578a1.467 1.467 0 0 1-1.4648-1.4648v-0.67578a1.467 1.467 0 0 1 1.4648-1.4648zm-10.15 2.457a0.5 0.5 0 0 0-0.5 0.5 0.5 0.5 0 0 0 1 0 0.5 0.5 0 0 0-0.5-0.5zm-26.639 0.31055a0.5 0.5 0 0 0 0 1h10.252a0.5 0.5 0 0 0 0-1zm43.186 0a0.5 0.5 0 0 0 0 1h10.254a0.5 0.5 0 0 0 0-1zm-16.547 6.6895a0.493 0.493 0 0 0-0.5 0.49023 0.5 0.5 0 0 0 1 0 0.493 0.493 0 0 0-0.5-0.49023zm-33.035 0.55859a2.469 2.469 0 0 0-2.4648 2.4668v0.67383a2.469 2.469 0 0 0 2.4668 2.4668h0.67383a2.469 2.469 0 0 0 2.4648-2.4668v-0.67383a2.469 2.469 0 0 0-2.4648-2.4668zm43.186 0a2.469 2.469 0 0 0-2.4648 2.4668v0.67383a2.469 2.469 0 0 0 2.4648 2.4668h0.67578a2.469 2.469 0 0 0 2.4668-2.4668v-0.67383a2.469 2.469 0 0 0-2.4668-2.4668zm-36.789 0.8418a0.5 0.5 0 0 0 0 1h18.453a0.5 0.5 0 0 0 0.5-0.5 0.5 0.5 0 0 0-0.5-0.5zm43.186 0a0.5 0.5 0 0 0 0 1h18.453a0.5 0.5 0 0 0 0.5-0.5 0.5 0.5 0 0 0-0.5-0.5zm-49.58 0.1582h0.67383a1.468 1.468 0 0 1 1.4668 1.4668v0.67383a1.467 1.467 0 0 1-1.4668 1.4668h-0.67383a1.467 1.467 0 0 1-1.4668-1.4668v-0.67383a1.468 1.468 0 0 1 1.4668-1.4668zm43.186 0h0.67383a1.468 1.468 0 0 1 1.4668 1.4668v0.67383a1.467 1.467 0 0 1-1.4668 1.4668h-0.67578a1.467 1.467 0 0 1-1.4648-1.4668v-0.67383a1.468 1.468 0 0 1 1.4668-1.4668zm-36.791 2.7676a0.5 0.5 0 0 0 0 1h10.252a0.5 0.5 0 0 0 0-1zm43.186 0a0.5 0.5 0 0 0 0 1h10.254a0.5 0.5 0 0 0 0-1zm-16.547 2.6738a0.5 0.5 0 0 0-0.5 0.5 0.5 0.5 0 0 0 1 0 0.5 0.5 0 0 0-0.5-0.5z"/>
</svg>
